{
  "albums": [
    {
      "name": "KFUPM 1",
      "year": 2005,
      "url": "https://mathfiles.kfupm.edu.sa/data/files/OthersData/FPTIMAGES/DSC_9432.JPG"
    },
    {
      "name": "KFUPM 2",
      "year": 1995,
      "url": "https://mathfiles.kfupm.edu.sa/data/files/OthersData/FPTIMAGES/DSC_9430.JPG"
    },
    {
      "name": "KFUPM 3",
      "year": 2008,
      "url": "https://mathfiles.kfupm.edu.sa/data/files/OthersData/FPTIMAGES/DSC_9429.JPG"
    }
  ]
}
